	daterange	Intensity	NormHom	Volume	Intensityw	NormHomw
10	10	0.359530636745158	0.48079416837639366	0.053771760154738876	0.3698918914243794	0.521188789889383
11	11	0.26529463759699606	0.6107305387193529	0.0685880077369439	0.38660839514266376	0.49159796228595476
12	12	0.5460056233512997	0.4142553502270291	0.03667311411992263	0.3729598538540222	0.506408194911637
13	13	0.2881613814800684	0.48924968990421824	0.051179883945841394	0.4395499284386464	0.4512434425672569
14	14	0.38117274247395266	0.44401379319364653	0.1	0.3818925683173055	0.4816048509254921
15	15	0.2941897845230848	0.575421475240219	0.12007736943907156	0.48186504698838056	0.447453538825316
16	16	0.3812958699198017	0.46895796019551195	0.22878143133462284	0.41422903811946526	0.47807553592128005
17	17	0.9412392679416458	0.39766812162949094	0.5389555125725338	0.4113762073808815	0.6374064201056846
18	18	0.5167692668794569	0.4233546235190061	0.8180657640232109	0.8830704477189993	0.4011175727194487
19	19	0.3945559205290959	0.5447150097596759	0.10475822050290136	0.9536225848584738	0.40136371215082556
20	20	0.8087078398773268	0.40161609378323204	0.2251063829787234	0.9120269443606079	0.40246404887814147
21	21	1.0725170048550399	0.3950619106396972	0.5906382978723405	1.1666931529219131	0.3987135225005778
22	22	0.4007940467178555	0.4239617661404951	0.8872340425531915	1.804867203084599	0.3945396253170963
23	23	0.30904450301043535	0.650996411857829	0.06572533849129594	1.2293662120194828	0.3974214726089059
24	24	0.9262976290111835	0.3972955962644662	0.24471953578336558	1.1076395100119298	0.39706145424826733
25	25	0.6696430263286133	0.40170991204505224	0.7864216634429401	1.4907350344049266	0.39472362878610645
26	26	0.3113077147372347	0.5049037171510231	0.11125725338491296	1.4879804779851176	0.39481827694308946
27	27	0.7319079766675625	0.3994406547957633	0.14781431334622824	0.9110784455843587	0.3990448906584565
28	28	0.33292267000599496	0.6497232107258655	0.1823597678916828	1.2203420327022356	0.3953108160595621
29	29	0.4630117877547362	0.4206028917671798	0.572147001934236	1.2708984379485977	0.39548398120610184
30	30	0.2718529312621711	0.6798791704777041	0.12382978723404256	1.0115619179150848	0.3989740667441515
31	31	0.7914217680286901	0.39929172188800766	0.264642166344294	0.6444631707813507	0.4116745503568173
32	32	0.26570953613518405	0.5098155986036872	0.09222437137330754	1.021135748107506	0.3979393113565809
33	33	0.31397634437912125	0.4575994156361325	0.06251450676982592	0.7306889246799332	0.40737951951641416
34	34	0.5250197832331037	0.48551975935374736	0.2018955512572534	0.6481746867930436	0.40960169710107786
35	35	0.3160286199445644	0.6456004808489575	0.19388781431334623	0.6928199309066518	0.4093655558827063
36	36	0.5397206033394731	0.41206887058489317	0.5385299806576402	0.7415883264337036	0.4060442334077351
37	37	0.2560171722935942	0.5965136178419341	0.07918762088974855	0.639652563747989	0.424588234613703
38	38	0.7156061031468641	0.4092114649753086	0.26406189555125725	0.6505478311769979	0.4224909561007718
39	39	0.6165473800754685	0.40960362708995846	0.9495551257253385	0.9342418476087405	0.40913385720098616
40	40	0.298825889345704	0.5062317471622876	0.16680851063829788	1.053492465509244	0.39987902040047596
41	41	0.27309182946224475	0.6878622475599278	0.10147001934235977	0.9520070928199926	0.40174704657521476
42	42	0.7496364488210704	0.41324810417811986	0.33597678916827856	0.7241512795339672	0.40875414408417476
43	43	0.4034252372257087	0.42637834520860807	0.6025918762088975	0.9732948617598957	0.4014689224508796
44	44	1.850540090690625	0.3922990933746793	0.09539651837524178	0.8703042094967461	0.4040707400103266
45	45	0.7134231902298095	0.3929414080881901	0.0839458413926499	0.7401746585086579	0.40737192869380334
46	46	0.7609540651241603	0.40100381174211064	1.0	0.9430549596078454	0.39901498854876705
47	47	0.36802445746778806	0.44764391927128677	0.1813926499032882	1.335786334001659	0.39577831555393916
48	48	0.2971591953966295	0.679069425544196	0.03938104448742746	1.1403829801116827	0.3961185907713879
49	49	0.2380588672162147	0.5361440052067175	0.04909090909090909	1.2545690583733162	0.39478764246443443
