	daterange	Intensity	NormHom	Volume	Intensityw	NormHomw
30	30	0.2718529312621711	0.6798791704777041	0.12382978723404256	2.579481860809502	0.3939135511525329
31	31	0.7914217680286901	0.39929172188800766	0.264642166344294	2.5589855543264908	0.39395065797998985
32	32	0.26570953613518405	0.5098155986036872	0.09222437137330754	2.8590754721679468	0.39351493593329945
33	33	0.31397634437912125	0.4575994156361325	0.06251450676982592	2.4722769385203804	0.3939254313413756
34	34	0.5250197832331037	0.48551975935374736	0.2018955512572534	2.329807284742393	0.3939449863170503
35	35	0.3160286199445644	0.6456004808489575	0.19388781431334623	2.5025490309975775	0.393726953219829
36	36	0.5397206033394731	0.41206887058489317	0.5385299806576402	2.252745460930292	0.39406262866629105
37	37	0.2560171722935942	0.5965136178419341	0.07918762088974855	1.8331229455681326	0.39523638605971556
38	38	0.7156061031468641	0.4092114649753086	0.26406189555125725	1.8728340948328626	0.39506777724051123
39	39	0.6165473800754685	0.40960362708995846	0.9495551257253385	2.144326109249279	0.39446089477476687
40	40	0.298825889345704	0.5062317471622876	0.16680851063829788	1.9819250833849684	0.39509013091149037
41	41	0.27309182946224475	0.6878622475599278	0.10147001934235977	1.6149710545757483	0.39673302446697345
42	42	0.7496364488210704	0.41324810417811986	0.33597678916827856	1.6245716228216998	0.3967667356882919
43	43	0.4034252372257087	0.42637834520860807	0.6025918762088975	1.6822357668485832	0.39676349216023243
44	44	1.850540090690625	0.3922990933746793	0.09539651837524178	1.7225798772587797	0.396496802160651
45	45	0.7134231902298095	0.3929414080881901	0.0839458413926499	1.632327685665212	0.3968073736451002
46	46	0.7609540651241603	0.40100381174211064	1.0	1.6941996775920207	0.3963110290004559
47	47	0.36802445746778806	0.44764391927128677	0.1813926499032882	1.7898608952859185	0.3961852693156557
48	48	0.2971591953966295	0.679069425544196	0.03938104448742746	1.7942117446082815	0.3962787635791363
49	49	0.2380588672162147	0.5361440052067175	0.04909090909090909	1.804185754514829	0.39627497913932885
