	daterange	Intensity	NormHom	Volume	Intensityw	NormHomw
0	0	0.22379756979350038	0.6166588442196985	0.012788211940754314	0.0	0.0
1	1	0.21032521297193965	0.5748314823521088	0.008347330381228686	0.0	0.0
2	2	0.25576194903567595	0.534993451703083	0.010001526950679494	0.0	0.0
3	3	0.22262942612867218	0.6592527318806393	0.01151575304117677	0.0	0.0
4	4	0.2116444840819205	0.6316370312142507	0.021962640606708404	0.0	0.0
5	5	0.2153962164983544	0.5492985577025469	0.036799511375782565	0.0	0.0
6	6	0.21653423823927362	0.5879438874589187	0.036506845828879725	0.22372192804202676	0.6077401369001223
7	7	0.2492169042714049	0.5093380164605972	0.03950984883188273	0.22365728735174065	0.5865500304792424
8	8	0.24749627884852887	0.6409482343975752	0.032409528172240035	0.2367564946813304	0.6530983358653681
9	9	0.32625099575231065	0.509808467000945	0.02572911894945793	0.24591909304839954	0.6424822284035618
10	10	0.27839081152309775	0.46514718713292347	0.01736906397923347	0.28136217084461096	0.6215991643634542
11	11	0.32639662449764323	0.535000117261857	0.01708912302132641	0.2927493659266426	0.568500397180614
12	12	0.31782788335679796	0.5123333069448236	0.022382552043568992	0.33360782635359953	0.5089953411446155
13	13	0.28422879312866994	0.45506534004157495	0.036735888430803686	0.328372843375112	0.5072015471522591
14	14	0.6800450209560185	0.4197603685777319	0.06689316435079147	0.32476026865041374	0.5096239847566496
15	15	0.2953981170933165	0.5140604999429584	0.062783122105156	0.5174768981566619	0.43722422024136653
16	16	0.29902212584154314	0.4762680798481045	0.058673079859520534	0.46812444321334556	0.4442017187487821
17	17	0.26339097572514186	0.4906361684449364	0.05606453911538657	0.45777016952355476	0.449206919808973
18	18	0.5076491695993505	0.45372360730026895	0.10010434162976536	0.3142110551612985	0.5046115236056683
19	19	0.43239635217428213	0.4348992458020067	0.14610373084949357	0.44256241170739513	0.4716763621594624
20	20	0.4495857356617301	0.42596064679503354	0.13911793149081284	0.42248675662380425	0.5267369274699918
21	21	0.32800735121515445	0.4485484674976098	0.13018527001577848	0.46873773973767857	0.4704189703372622
22	22	0.2978667355246258	0.4692492144300995	0.1898635924059653	0.4495951426233378	0.4432755033610286
23	23	0.3777413192688752	0.4490530649020218	0.4879752633989922	0.38912981653226814	0.45521952197644444
24	24	0.40224493477512285	0.5344578079270197	0.9918308138647122	0.3767004323748786	0.46023212871587593
25	25	0.39014776243960747	0.5960397753389962	1.0	0.45791902105356824	0.5476554069246691
26	26	0.3143142028313726	0.4893987483440203	0.7089632004886243	0.5949970175893633	0.4771025384288875
27	27	0.30922903704245064	0.5094157545650972	0.4253448363617855	0.5627140029309239	0.46248288289521766
28	28	0.37924785716054926	0.5060780892597796	0.23797526339899222	0.47170878838157004	0.466630816159895
29	29	0.31433016279879283	0.4408760811129906	0.1286328701582939	0.3626037943825214	0.5755212591332679
